{
    "type": "minecraft:crafting_shaped",
    "pattern": [
        "## ",
        " | ",
        " | "
    ],
    "key": {
        "#": {
            "item": "minecraft:nether_brick"
        },
        "|": {
            "item": "minecraft:stick"
        }
    },
    "result": {
        "item": "minecraft:stone_hoe",
        "count": 1
    }
}
