{
  "rewards": {
    "function": "nether_gear:craft_nether_shovel"
  },
  "criteria": {
    "requirement": {
      "trigger": "minecraft:recipe_unlocked",
      "conditions": {
        "recipe": "nether_gear:nether_shovel"
      }
    }
  }
}
